%YAML 1.1
%TAG !u! tag:unity3d.com,2011:
--- !u!114 &11400000
MonoBehaviour:
  m_ObjectHideFlags: 0
  m_CorrespondingSourceObject: {fileID: 0}
  m_PrefabInstance: {fileID: 0}
  m_PrefabAsset: {fileID: 0}
  m_GameObject: {fileID: 0}
  m_Enabled: 1
  m_EditorHideFlags: 0
  m_Script: {fileID: 11500000, guid: a1c49a92ef1771844b9c93a4037158cd, type: 3}
  m_Name: wobblyliquidOverrideAsset
  m_EditorClassIdentifier: 
  overrideList:
  - name: _Fill
    displayName: _Fill
    shaderName: Assets/_JOE/Shaders/WobblyLiquid.shadergraph
    materialName: Shader Graphs_WobblyLiquid
    type: 3
    value: {x: 0.899, y: 0, z: 0, w: 0}
    instanceOverride: 0
  - name: _TopColor
    displayName: _TopColor
    shaderName: Assets/_JOE/Shaders/WobblyLiquid.shadergraph
    materialName: Shader Graphs_WobblyLiquid
    type: 0
    value: {x: 0.04672481, y: 0.06868382, z: 0.4716981, w: 0}
    instanceOverride: 0
  - name: _SideColor
    displayName: _SideColor
    shaderName: Assets/_JOE/Shaders/WobblyLiquid.shadergraph
    materialName: Shader Graphs_WobblyLiquid
    type: 0
    value: {x: 0.005882353, y: 0.00882353, z: 0.030882353, w: 0}
    instanceOverride: 0
  material: {fileID: 2100000, guid: 1d5476acd75294749b47ec9bb5f57281, type: 2}
