%YAML 1.1
%TAG !u! tag:unity3d.com,2011:
--- !u!114 &-1353952293686667637
MonoBehaviour:
  m_ObjectHideFlags: 11
  m_CorrespondingSourceObject: {fileID: 0}
  m_PrefabInstance: {fileID: 0}
  m_PrefabAsset: {fileID: 0}
  m_GameObject: {fileID: 0}
  m_Enabled: 1
  m_EditorHideFlags: 0
  m_Script: {fileID: 11500000, guid: d0353a89b1f911e48b9e16bdc9f2e058, type: 3}
  m_Name: 
  m_EditorClassIdentifier: 
  version: 5
--- !u!21 &2100000
Material:
  serializedVersion: 6
  m_ObjectHideFlags: 0
  m_CorrespondingSourceObject: {fileID: 0}
  m_PrefabInstance: {fileID: 0}
  m_PrefabAsset: {fileID: 0}
  m_Name: Blood
  m_Shader: {fileID: -6465566751694194690, guid: ab1015d932206b247b57c99a434f08c4,
    type: 3}
  m_ShaderKeywords: 
  m_LightmapFlags: 4
  m_EnableInstancingVariants: 0
  m_DoubleSidedGI: 1
  m_CustomRenderQueue: -1
  stringTagMap: {}
  disabledShaderPasses: []
  m_SavedProperties:
    serializedVersion: 3
    m_TexEnvs:
    - Texture2D_0cecbfd1b7614d7ca9e653ec4f98f18b:
        m_Texture: {fileID: 2800000, guid: 16e5f3be4e6b2be4ea6b0dc6aff23eba, type: 3}
        m_Scale: {x: 1, y: 1}
        m_Offset: {x: 0, y: 0}
    - unity_Lightmaps:
        m_Texture: {fileID: 0}
        m_Scale: {x: 1, y: 1}
        m_Offset: {x: 0, y: 0}
    - unity_LightmapsInd:
        m_Texture: {fileID: 0}
        m_Scale: {x: 1, y: 1}
        m_Offset: {x: 0, y: 0}
    - unity_ShadowMasks:
        m_Texture: {fileID: 0}
        m_Scale: {x: 1, y: 1}
        m_Offset: {x: 0, y: 0}
    m_Ints: []
    m_Floats:
    - Vector1_5e5b3227ec184dfbb56034bc433d15ec: 0.482
    - _Noise_Amount: 0
    - _NormalOffset: 0
    - _NormalStrength: 100
    - _Power: -23.9
    m_Colors:
    - Color_0405ae9ba8ec44e78f7707c6033b046d: {r: 0.5566038, g: 0.03938234, b: 0.03938234,
        a: 1}
    - _Blood: {r: 1.4980392, g: 0, b: 0, a: 1}
  m_BuildTextureStacks: []
