%YAML 1.1
%TAG !u! tag:unity3d.com,2011:
--- !u!114 &-7005288106132011336
MonoBehaviour:
  m_ObjectHideFlags: 11
  m_CorrespondingSourceObject: {fileID: 0}
  m_PrefabInstance: {fileID: 0}
  m_PrefabAsset: {fileID: 0}
  m_GameObject: {fileID: 0}
  m_Enabled: 1
  m_EditorHideFlags: 0
  m_Script: {fileID: 11500000, guid: d0353a89b1f911e48b9e16bdc9f2e058, type: 3}
  m_Name: 
  m_EditorClassIdentifier: 
  version: 5
--- !u!21 &2100000
Material:
  serializedVersion: 6
  m_ObjectHideFlags: 0
  m_CorrespondingSourceObject: {fileID: 0}
  m_PrefabInstance: {fileID: 0}
  m_PrefabAsset: {fileID: 0}
  m_Name: sprites_blood
  m_Shader: {fileID: -6465566751694194690, guid: ab1c53c6090f51e4fbbb0a58ffa59103,
    type: 3}
  m_ShaderKeywords: 
  m_LightmapFlags: 4
  m_EnableInstancingVariants: 0
  m_DoubleSidedGI: 0
  m_CustomRenderQueue: -1
  stringTagMap: {}
  disabledShaderPasses: []
  m_SavedProperties:
    serializedVersion: 3
    m_TexEnvs:
    - Texture2D_51777ae79f914e999e38a9d68d0abbbf:
        m_Texture: {fileID: 2800000, guid: 0a1dc51ee20e82f45a1b5632f428e965, type: 3}
        m_Scale: {x: 1, y: 1}
        m_Offset: {x: 0, y: 0}
    - _SampleTexture2D_276476c7224d4e37866c44f3c37b969c_Texture_1:
        m_Texture: {fileID: 2800000, guid: 135a74248cb3ba7498243b5633d90ccc, type: 3}
        m_Scale: {x: 1, y: 1}
        m_Offset: {x: 0, y: 0}
    - _SampleTexture2D_3c2c4562e4f94b08b29ab2654891f17c_Texture_1:
        m_Texture: {fileID: 2800000, guid: 0a1dc51ee20e82f45a1b5632f428e965, type: 3}
        m_Scale: {x: 1, y: 1}
        m_Offset: {x: 0, y: 0}
    - _SampleTexture2D_3c5c5e3b874244d495d31a680a7d0574_Texture_1:
        m_Texture: {fileID: 2800000, guid: c1e79f54d3dffc94c8bb7d00ea7ee181, type: 3}
        m_Scale: {x: 1, y: 1}
        m_Offset: {x: 0, y: 0}
    - _SampleTexture2D_d85683200a524371a123fb6bd563acd5_Texture_1:
        m_Texture: {fileID: 2800000, guid: 0a1dc51ee20e82f45a1b5632f428e965, type: 3}
        m_Scale: {x: 1, y: 1}
        m_Offset: {x: 0, y: 0}
    - _SampleTexture2D_d961b4ce77cf403fa05e744efa310992_Texture_1:
        m_Texture: {fileID: 2800000, guid: 862e43a143179cf46950e7821e455823, type: 3}
        m_Scale: {x: 1, y: 1}
        m_Offset: {x: 0, y: 0}
    - unity_Lightmaps:
        m_Texture: {fileID: 0}
        m_Scale: {x: 1, y: 1}
        m_Offset: {x: 0, y: 0}
    - unity_LightmapsInd:
        m_Texture: {fileID: 0}
        m_Scale: {x: 1, y: 1}
        m_Offset: {x: 0, y: 0}
    - unity_ShadowMasks:
        m_Texture: {fileID: 0}
        m_Scale: {x: 1, y: 1}
        m_Offset: {x: 0, y: 0}
    m_Ints: []
    m_Floats:
    - _Brightness: 1.25
    m_Colors:
    - Color_befdefb8b41a4027b2429d56a2ac7ba0: {r: 0.05660379, g: 0, b: 0, a: 1}
  m_BuildTextureStacks: []
