{
    "m_SGVersion": 2,
    "m_Type": "UnityEditor.ShaderGraph.GraphData",
    "m_ObjectId": "dd73f5414a164bd38e338ed3af14483a",
    "m_Properties": [],
    "m_Keywords": [],
    "m_Nodes": [
        {
            "m_Id": "04b018cc310c4117a16c68949e95ae1f"
        },
        {
            "m_Id": "2f4d83b96aaf4621b3ce622202157ec2"
        },
        {
            "m_Id": "11bd51420bc34bc591060e2f2fa00d7e"
        },
        {
            "m_Id": "cb88336f34e24e2d9e8bc61fc508d641"
        },
        {
            "m_Id": "c307a79725fe4245afa9f38aadf0c210"
        },
        {
            "m_Id": "7f0cabff657d41108f72e00161cf7021"
        },
        {
            "m_Id": "49ea761f331646b0acdad74e43486b29"
        },
        {
            "m_Id": "0ee8d504d78d4770b4509b1f96b76e11"
        },
        {
            "m_Id": "998f9fb1f9cd46baaf4eed487a060c43"
        },
        {
            "m_Id": "bdc7dd6747574ecf820d71ff0db6edaa"
        },
        {
            "m_Id": "c0efdfe4b8024e429efc2be0e5e19369"
        },
        {
            "m_Id": "4bb4da8716e342028c843125c469bc64"
        }
    ],
    "m_GroupDatas": [],
    "m_StickyNoteDatas": [],
    "m_Edges": [
        {
            "m_OutputSlot": {
                "m_Node": {
                    "m_Id": "4bb4da8716e342028c843125c469bc64"
                },
                "m_SlotId": 0
            },
            "m_InputSlot": {
                "m_Node": {
                    "m_Id": "7f0cabff657d41108f72e00161cf7021"
                },
                "m_SlotId": 0
            }
        },
        {
            "m_OutputSlot": {
                "m_Node": {
                    "m_Id": "bdc7dd6747574ecf820d71ff0db6edaa"
                },
                "m_SlotId": 0
            },
            "m_InputSlot": {
                "m_Node": {
                    "m_Id": "cb88336f34e24e2d9e8bc61fc508d641"
                },
                "m_SlotId": 0
            }
        },
        {
            "m_OutputSlot": {
                "m_Node": {
                    "m_Id": "c0efdfe4b8024e429efc2be0e5e19369"
                },
                "m_SlotId": 0
            },
            "m_InputSlot": {
                "m_Node": {
                    "m_Id": "998f9fb1f9cd46baaf4eed487a060c43"
                },
                "m_SlotId": 0
            }
        }
    ],
    "m_VertexContext": {
        "m_Position": {
            "x": 0.0,
            "y": 0.0
        },
        "m_Blocks": [
            {
                "m_Id": "04b018cc310c4117a16c68949e95ae1f"
            },
            {
                "m_Id": "2f4d83b96aaf4621b3ce622202157ec2"
            },
            {
                "m_Id": "11bd51420bc34bc591060e2f2fa00d7e"
            }
        ]
    },
    "m_FragmentContext": {
        "m_Position": {
            "x": 0.0,
            "y": 200.0
        },
        "m_Blocks": [
            {
                "m_Id": "cb88336f34e24e2d9e8bc61fc508d641"
            },
            {
                "m_Id": "c307a79725fe4245afa9f38aadf0c210"
            },
            {
                "m_Id": "7f0cabff657d41108f72e00161cf7021"
            },
            {
                "m_Id": "49ea761f331646b0acdad74e43486b29"
            },
            {
                "m_Id": "0ee8d504d78d4770b4509b1f96b76e11"
            },
            {
                "m_Id": "998f9fb1f9cd46baaf4eed487a060c43"
            }
        ]
    },
    "m_PreviewData": {
        "serializedMesh": {
            "m_SerializedMesh": "{\"mesh\":{\"instanceID\":0}}",
            "m_Guid": ""
        }
    },
    "m_Path": "Shader Graphs",
    "m_ConcretePrecision": 0,
    "m_PreviewMode": 2,
    "m_OutputNode": {
        "m_Id": ""
    },
    "m_ActiveTargets": [
        {
            "m_Id": "93630781ee104525bb686fb69672344d"
        }
    ]
}

{
    "m_SGVersion": 0,
    "m_Type": "UnityEditor.ShaderGraph.BlockNode",
    "m_ObjectId": "04b018cc310c4117a16c68949e95ae1f",
    "m_Group": {
        "m_Id": ""
    },
    "m_Name": "VertexDescription.Position",
    "m_DrawState": {
        "m_Expanded": true,
        "m_Position": {
            "serializedVersion": "2",
            "x": 0.0,
            "y": 0.0,
            "width": 0.0,
            "height": 0.0
        }
    },
    "m_Slots": [
        {
            "m_Id": "201590e472b549b697af1ba5e4942d71"
        }
    ],
    "synonyms": [],
    "m_Precision": 0,
    "m_PreviewExpanded": true,
    "m_PreviewMode": 0,
    "m_CustomColors": {
        "m_SerializableColors": []
    },
    "m_SerializedDescriptor": "VertexDescription.Position"
}

{
    "m_SGVersion": 0,
    "m_Type": "UnityEditor.ShaderGraph.Vector1MaterialSlot",
    "m_ObjectId": "098e0ba2d6f749a3adebf7061c2f3b56",
    "m_Id": 7,
    "m_DisplayName": "A",
    "m_SlotType": 1,
    "m_Hidden": false,
    "m_ShaderOutputName": "A",
    "m_StageCapability": 2,
    "m_Value": 0.0,
    "m_DefaultValue": 0.0,
    "m_Labels": []
}

{
    "m_SGVersion": 0,
    "m_Type": "UnityEditor.ShaderGraph.BlockNode",
    "m_ObjectId": "0ee8d504d78d4770b4509b1f96b76e11",
    "m_Group": {
        "m_Id": ""
    },
    "m_Name": "SurfaceDescription.Occlusion",
    "m_DrawState": {
        "m_Expanded": true,
        "m_Position": {
            "serializedVersion": "2",
            "x": 0.0,
            "y": 0.0,
            "width": 0.0,
            "height": 0.0
        }
    },
    "m_Slots": [
        {
            "m_Id": "283d79cae2014838a3e8bbdb61e6c5a6"
        }
    ],
    "synonyms": [],
    "m_Precision": 0,
    "m_PreviewExpanded": true,
    "m_PreviewMode": 0,
    "m_CustomColors": {
        "m_SerializableColors": []
    },
    "m_SerializedDescriptor": "SurfaceDescription.Occlusion"
}

{
    "m_SGVersion": 0,
    "m_Type": "UnityEditor.ShaderGraph.BlockNode",
    "m_ObjectId": "11bd51420bc34bc591060e2f2fa00d7e",
    "m_Group": {
        "m_Id": ""
    },
    "m_Name": "VertexDescription.Tangent",
    "m_DrawState": {
        "m_Expanded": true,
        "m_Position": {
            "serializedVersion": "2",
            "x": 0.0,
            "y": 0.0,
            "width": 0.0,
            "height": 0.0
        }
    },
    "m_Slots": [
        {
            "m_Id": "710f36bd84c440888d1f46ec46858b97"
        }
    ],
    "synonyms": [],
    "m_Precision": 0,
    "m_PreviewExpanded": true,
    "m_PreviewMode": 0,
    "m_CustomColors": {
        "m_SerializableColors": []
    },
    "m_SerializedDescriptor": "VertexDescription.Tangent"
}

{
    "m_SGVersion": 0,
    "m_Type": "UnityEditor.ShaderGraph.ColorRGBMaterialSlot",
    "m_ObjectId": "12258db602214b92a2492b44cd4657ba",
    "m_Id": 0,
    "m_DisplayName": "Base Color",
    "m_SlotType": 0,
    "m_Hidden": false,
    "m_ShaderOutputName": "BaseColor",
    "m_StageCapability": 2,
    "m_Value": {
        "x": 0.5,
        "y": 0.5,
        "z": 0.5
    },
    "m_DefaultValue": {
        "x": 0.0,
        "y": 0.0,
        "z": 0.0
    },
    "m_Labels": [],
    "m_ColorMode": 0,
    "m_DefaultColor": {
        "r": 0.5,
        "g": 0.5,
        "b": 0.5,
        "a": 1.0
    }
}

{
    "m_SGVersion": 0,
    "m_Type": "UnityEditor.ShaderGraph.Vector1MaterialSlot",
    "m_ObjectId": "17e1e53e765f480380b58d98420abeee",
    "m_Id": 6,
    "m_DisplayName": "B",
    "m_SlotType": 1,
    "m_Hidden": false,
    "m_ShaderOutputName": "B",
    "m_StageCapability": 2,
    "m_Value": 0.0,
    "m_DefaultValue": 0.0,
    "m_Labels": []
}

{
    "m_SGVersion": 0,
    "m_Type": "UnityEditor.ShaderGraph.PositionMaterialSlot",
    "m_ObjectId": "201590e472b549b697af1ba5e4942d71",
    "m_Id": 0,
    "m_DisplayName": "Position",
    "m_SlotType": 0,
    "m_Hidden": false,
    "m_ShaderOutputName": "Position",
    "m_StageCapability": 1,
    "m_Value": {
        "x": 0.0,
        "y": 0.0,
        "z": 0.0
    },
    "m_DefaultValue": {
        "x": 0.0,
        "y": 0.0,
        "z": 0.0
    },
    "m_Labels": [],
    "m_Space": 0
}

{
    "m_SGVersion": 0,
    "m_Type": "UnityEditor.ShaderGraph.Vector1MaterialSlot",
    "m_ObjectId": "283d79cae2014838a3e8bbdb61e6c5a6",
    "m_Id": 0,
    "m_DisplayName": "Ambient Occlusion",
    "m_SlotType": 0,
    "m_Hidden": false,
    "m_ShaderOutputName": "Occlusion",
    "m_StageCapability": 2,
    "m_Value": 1.0,
    "m_DefaultValue": 1.0,
    "m_Labels": []
}

{
    "m_SGVersion": 0,
    "m_Type": "UnityEditor.ShaderGraph.BlockNode",
    "m_ObjectId": "2f4d83b96aaf4621b3ce622202157ec2",
    "m_Group": {
        "m_Id": ""
    },
    "m_Name": "VertexDescription.Normal",
    "m_DrawState": {
        "m_Expanded": true,
        "m_Position": {
            "serializedVersion": "2",
            "x": 0.0,
            "y": 0.0,
            "width": 0.0,
            "height": 0.0
        }
    },
    "m_Slots": [
        {
            "m_Id": "4216f04721f843ae81cd5cef3fba58fb"
        }
    ],
    "synonyms": [],
    "m_Precision": 0,
    "m_PreviewExpanded": true,
    "m_PreviewMode": 0,
    "m_CustomColors": {
        "m_SerializableColors": []
    },
    "m_SerializedDescriptor": "VertexDescription.Normal"
}

{
    "m_SGVersion": 0,
    "m_Type": "UnityEditor.ShaderGraph.Vector1MaterialSlot",
    "m_ObjectId": "360ba385d03247f38024236076be4dcb",
    "m_Id": 7,
    "m_DisplayName": "A",
    "m_SlotType": 1,
    "m_Hidden": false,
    "m_ShaderOutputName": "A",
    "m_StageCapability": 2,
    "m_Value": 0.0,
    "m_DefaultValue": 0.0,
    "m_Labels": []
}

{
    "m_SGVersion": 0,
    "m_Type": "UnityEditor.ShaderGraph.Vector1MaterialSlot",
    "m_ObjectId": "36762b0adb644988a90af2a279a63a53",
    "m_Id": 7,
    "m_DisplayName": "A",
    "m_SlotType": 1,
    "m_Hidden": false,
    "m_ShaderOutputName": "A",
    "m_StageCapability": 2,
    "m_Value": 0.0,
    "m_DefaultValue": 0.0,
    "m_Labels": []
}

{
    "m_SGVersion": 0,
    "m_Type": "UnityEditor.ShaderGraph.Texture2DInputMaterialSlot",
    "m_ObjectId": "406cdaa130bc4218ac50816b75a67566",
    "m_Id": 1,
    "m_DisplayName": "Texture",
    "m_SlotType": 0,
    "m_Hidden": false,
    "m_ShaderOutputName": "Texture",
    "m_StageCapability": 3,
    "m_BareResource": false,
    "m_Texture": {
        "m_SerializedTexture": "{\"texture\":{\"fileID\":2800000,\"guid\":\"598f8cba56636da4dbb56d1127c19380\",\"type\":3}}",
        "m_Guid": ""
    },
    "m_DefaultType": 0
}

{
    "m_SGVersion": 0,
    "m_Type": "UnityEditor.ShaderGraph.NormalMaterialSlot",
    "m_ObjectId": "4216f04721f843ae81cd5cef3fba58fb",
    "m_Id": 0,
    "m_DisplayName": "Normal",
    "m_SlotType": 0,
    "m_Hidden": false,
    "m_ShaderOutputName": "Normal",
    "m_StageCapability": 1,
    "m_Value": {
        "x": 0.0,
        "y": 0.0,
        "z": 0.0
    },
    "m_DefaultValue": {
        "x": 0.0,
        "y": 0.0,
        "z": 0.0
    },
    "m_Labels": [],
    "m_Space": 0
}

{
    "m_SGVersion": 0,
    "m_Type": "UnityEditor.ShaderGraph.BlockNode",
    "m_ObjectId": "49ea761f331646b0acdad74e43486b29",
    "m_Group": {
        "m_Id": ""
    },
    "m_Name": "SurfaceDescription.Emission",
    "m_DrawState": {
        "m_Expanded": true,
        "m_Position": {
            "serializedVersion": "2",
            "x": 0.0,
            "y": 0.0,
            "width": 0.0,
            "height": 0.0
        }
    },
    "m_Slots": [
        {
            "m_Id": "bdfc023085044ee4af210477cbfb93fa"
        }
    ],
    "synonyms": [],
    "m_Precision": 0,
    "m_PreviewExpanded": true,
    "m_PreviewMode": 0,
    "m_CustomColors": {
        "m_SerializableColors": []
    },
    "m_SerializedDescriptor": "SurfaceDescription.Emission"
}

{
    "m_SGVersion": 0,
    "m_Type": "UnityEditor.ShaderGraph.SampleTexture2DNode",
    "m_ObjectId": "4bb4da8716e342028c843125c469bc64",
    "m_Group": {
        "m_Id": ""
    },
    "m_Name": "Sample Texture 2D",
    "m_DrawState": {
        "m_Expanded": true,
        "m_Position": {
            "serializedVersion": "2",
            "x": -344.0,
            "y": 455.0000305175781,
            "width": 208.0,
            "height": 437.0000305175781
        }
    },
    "m_Slots": [
        {
            "m_Id": "fe612444f85f4d47b9a4ff31f05e9741"
        },
        {
            "m_Id": "bdec5fa295c24018a88208e4b03f115d"
        },
        {
            "m_Id": "a2348e877d5f4c80a12c252a80299afb"
        },
        {
            "m_Id": "f7992bf31b2b4ad984fea920f02ad58f"
        },
        {
            "m_Id": "36762b0adb644988a90af2a279a63a53"
        },
        {
            "m_Id": "5761b7507dc64a43ae23043680d282ec"
        },
        {
            "m_Id": "8ed250ca2ad045a999f19723c877d436"
        },
        {
            "m_Id": "e63d02b1972d426da6fd39f53380c349"
        }
    ],
    "synonyms": [],
    "m_Precision": 0,
    "m_PreviewExpanded": true,
    "m_PreviewMode": 0,
    "m_CustomColors": {
        "m_SerializableColors": []
    },
    "m_TextureType": 0,
    "m_NormalMapSpace": 0
}

{
    "m_SGVersion": 0,
    "m_Type": "UnityEditor.ShaderGraph.Texture2DInputMaterialSlot",
    "m_ObjectId": "5761b7507dc64a43ae23043680d282ec",
    "m_Id": 1,
    "m_DisplayName": "Texture",
    "m_SlotType": 0,
    "m_Hidden": false,
    "m_ShaderOutputName": "Texture",
    "m_StageCapability": 3,
    "m_BareResource": false,
    "m_Texture": {
        "m_SerializedTexture": "{\"texture\":{\"fileID\":2800000,\"guid\":\"5fa7489801dd469439f542d67ac4cfe6\",\"type\":3}}",
        "m_Guid": ""
    },
    "m_DefaultType": 0
}

{
    "m_SGVersion": 0,
    "m_Type": "UnityEditor.ShaderGraph.Vector1MaterialSlot",
    "m_ObjectId": "5f428df18a3d4fcb85e6a81ab7b98459",
    "m_Id": 5,
    "m_DisplayName": "G",
    "m_SlotType": 1,
    "m_Hidden": false,
    "m_ShaderOutputName": "G",
    "m_StageCapability": 2,
    "m_Value": 0.0,
    "m_DefaultValue": 0.0,
    "m_Labels": []
}

{
    "m_SGVersion": 0,
    "m_Type": "UnityEditor.ShaderGraph.Vector1MaterialSlot",
    "m_ObjectId": "5f988b270bfd4e899c31f752551c1b15",
    "m_Id": 4,
    "m_DisplayName": "R",
    "m_SlotType": 1,
    "m_Hidden": false,
    "m_ShaderOutputName": "R",
    "m_StageCapability": 2,
    "m_Value": 0.0,
    "m_DefaultValue": 0.0,
    "m_Labels": []
}

{
    "m_SGVersion": 0,
    "m_Type": "UnityEditor.ShaderGraph.TangentMaterialSlot",
    "m_ObjectId": "710f36bd84c440888d1f46ec46858b97",
    "m_Id": 0,
    "m_DisplayName": "Tangent",
    "m_SlotType": 0,
    "m_Hidden": false,
    "m_ShaderOutputName": "Tangent",
    "m_StageCapability": 1,
    "m_Value": {
        "x": 0.0,
        "y": 0.0,
        "z": 0.0
    },
    "m_DefaultValue": {
        "x": 0.0,
        "y": 0.0,
        "z": 0.0
    },
    "m_Labels": [],
    "m_Space": 0
}

{
    "m_SGVersion": 0,
    "m_Type": "UnityEditor.ShaderGraph.SamplerStateMaterialSlot",
    "m_ObjectId": "7ae1b5e0cf2c4f85a28f9ddb256e75eb",
    "m_Id": 3,
    "m_DisplayName": "Sampler",
    "m_SlotType": 0,
    "m_Hidden": false,
    "m_ShaderOutputName": "Sampler",
    "m_StageCapability": 3,
    "m_BareResource": false
}

{
    "m_SGVersion": 0,
    "m_Type": "UnityEditor.ShaderGraph.Vector1MaterialSlot",
    "m_ObjectId": "7eda97fcf1f84fb1a5a8301849991143",
    "m_Id": 6,
    "m_DisplayName": "B",
    "m_SlotType": 1,
    "m_Hidden": false,
    "m_ShaderOutputName": "B",
    "m_StageCapability": 2,
    "m_Value": 0.0,
    "m_DefaultValue": 0.0,
    "m_Labels": []
}

{
    "m_SGVersion": 0,
    "m_Type": "UnityEditor.ShaderGraph.BlockNode",
    "m_ObjectId": "7f0cabff657d41108f72e00161cf7021",
    "m_Group": {
        "m_Id": ""
    },
    "m_Name": "SurfaceDescription.NormalTS",
    "m_DrawState": {
        "m_Expanded": true,
        "m_Position": {
            "serializedVersion": "2",
            "x": 0.0,
            "y": 0.0,
            "width": 0.0,
            "height": 0.0
        }
    },
    "m_Slots": [
        {
            "m_Id": "94fcbfe49f404aeab3af1937364c4c9f"
        }
    ],
    "synonyms": [],
    "m_Precision": 0,
    "m_PreviewExpanded": true,
    "m_PreviewMode": 0,
    "m_CustomColors": {
        "m_SerializableColors": []
    },
    "m_SerializedDescriptor": "SurfaceDescription.NormalTS"
}

{
    "m_SGVersion": 0,
    "m_Type": "UnityEditor.ShaderGraph.UVMaterialSlot",
    "m_ObjectId": "8ed250ca2ad045a999f19723c877d436",
    "m_Id": 2,
    "m_DisplayName": "UV",
    "m_SlotType": 0,
    "m_Hidden": false,
    "m_ShaderOutputName": "UV",
    "m_StageCapability": 3,
    "m_Value": {
        "x": 0.0,
        "y": 0.0
    },
    "m_DefaultValue": {
        "x": 0.0,
        "y": 0.0
    },
    "m_Labels": [],
    "m_Channel": 0
}

{
    "m_SGVersion": 0,
    "m_Type": "UnityEditor.Rendering.Universal.ShaderGraph.UniversalTarget",
    "m_ObjectId": "93630781ee104525bb686fb69672344d",
    "m_ActiveSubTarget": {
        "m_Id": "b1e35740687e420fa25b17a46dc51f51"
    },
    "m_SurfaceType": 0,
    "m_AlphaMode": 0,
    "m_TwoSided": false,
    "m_AlphaClip": false,
    "m_CustomEditorGUI": ""
}

{
    "m_SGVersion": 0,
    "m_Type": "UnityEditor.ShaderGraph.NormalMaterialSlot",
    "m_ObjectId": "94fcbfe49f404aeab3af1937364c4c9f",
    "m_Id": 0,
    "m_DisplayName": "Normal (Tangent Space)",
    "m_SlotType": 0,
    "m_Hidden": false,
    "m_ShaderOutputName": "NormalTS",
    "m_StageCapability": 2,
    "m_Value": {
        "x": 0.0,
        "y": 0.0,
        "z": 0.0
    },
    "m_DefaultValue": {
        "x": 0.0,
        "y": 0.0,
        "z": 0.0
    },
    "m_Labels": [],
    "m_Space": 3
}

{
    "m_SGVersion": 0,
    "m_Type": "UnityEditor.ShaderGraph.UVMaterialSlot",
    "m_ObjectId": "994d5c2093b44c01b0642f5229466c72",
    "m_Id": 2,
    "m_DisplayName": "UV",
    "m_SlotType": 0,
    "m_Hidden": false,
    "m_ShaderOutputName": "UV",
    "m_StageCapability": 3,
    "m_Value": {
        "x": 0.0,
        "y": 0.0
    },
    "m_DefaultValue": {
        "x": 0.0,
        "y": 0.0
    },
    "m_Labels": [],
    "m_Channel": 0
}

{
    "m_SGVersion": 0,
    "m_Type": "UnityEditor.ShaderGraph.BlockNode",
    "m_ObjectId": "998f9fb1f9cd46baaf4eed487a060c43",
    "m_Group": {
        "m_Id": ""
    },
    "m_Name": "SurfaceDescription.Metallic",
    "m_DrawState": {
        "m_Expanded": true,
        "m_Position": {
            "serializedVersion": "2",
            "x": 0.0,
            "y": 0.0,
            "width": 0.0,
            "height": 0.0
        }
    },
    "m_Slots": [
        {
            "m_Id": "da778572608c4ad7914da4c93407b671"
        }
    ],
    "synonyms": [],
    "m_Precision": 0,
    "m_PreviewExpanded": true,
    "m_PreviewMode": 0,
    "m_CustomColors": {
        "m_SerializableColors": []
    },
    "m_SerializedDescriptor": "SurfaceDescription.Metallic"
}

{
    "m_SGVersion": 0,
    "m_Type": "UnityEditor.ShaderGraph.Vector4MaterialSlot",
    "m_ObjectId": "9c7262b152254596b25248bd18363688",
    "m_Id": 0,
    "m_DisplayName": "RGBA",
    "m_SlotType": 1,
    "m_Hidden": false,
    "m_ShaderOutputName": "RGBA",
    "m_StageCapability": 2,
    "m_Value": {
        "x": 0.0,
        "y": 0.0,
        "z": 0.0,
        "w": 0.0
    },
    "m_DefaultValue": {
        "x": 0.0,
        "y": 0.0,
        "z": 0.0,
        "w": 0.0
    },
    "m_Labels": []
}

{
    "m_SGVersion": 0,
    "m_Type": "UnityEditor.ShaderGraph.Vector1MaterialSlot",
    "m_ObjectId": "a2348e877d5f4c80a12c252a80299afb",
    "m_Id": 5,
    "m_DisplayName": "G",
    "m_SlotType": 1,
    "m_Hidden": false,
    "m_ShaderOutputName": "G",
    "m_StageCapability": 2,
    "m_Value": 0.0,
    "m_DefaultValue": 0.0,
    "m_Labels": []
}

{
    "m_SGVersion": 0,
    "m_Type": "UnityEditor.ShaderGraph.Vector4MaterialSlot",
    "m_ObjectId": "a5649544e7f54006804a51532ad701c2",
    "m_Id": 0,
    "m_DisplayName": "RGBA",
    "m_SlotType": 1,
    "m_Hidden": false,
    "m_ShaderOutputName": "RGBA",
    "m_StageCapability": 2,
    "m_Value": {
        "x": 0.0,
        "y": 0.0,
        "z": 0.0,
        "w": 0.0
    },
    "m_DefaultValue": {
        "x": 0.0,
        "y": 0.0,
        "z": 0.0,
        "w": 0.0
    },
    "m_Labels": []
}

{
    "m_SGVersion": 0,
    "m_Type": "UnityEditor.Rendering.Universal.ShaderGraph.UniversalLitSubTarget",
    "m_ObjectId": "b1e35740687e420fa25b17a46dc51f51",
    "m_WorkflowMode": 1,
    "m_NormalDropOffSpace": 0,
    "m_ClearCoat": false
}

{
    "m_SGVersion": 0,
    "m_Type": "UnityEditor.ShaderGraph.Vector1MaterialSlot",
    "m_ObjectId": "b7eb9ff8bf65411797d0d2d8f686915d",
    "m_Id": 5,
    "m_DisplayName": "G",
    "m_SlotType": 1,
    "m_Hidden": false,
    "m_ShaderOutputName": "G",
    "m_StageCapability": 2,
    "m_Value": 0.0,
    "m_DefaultValue": 0.0,
    "m_Labels": []
}

{
    "m_SGVersion": 0,
    "m_Type": "UnityEditor.ShaderGraph.SampleTexture2DNode",
    "m_ObjectId": "bdc7dd6747574ecf820d71ff0db6edaa",
    "m_Group": {
        "m_Id": ""
    },
    "m_Name": "Sample Texture 2D",
    "m_DrawState": {
        "m_Expanded": true,
        "m_Position": {
            "serializedVersion": "2",
            "x": -591.0,
            "y": -218.00001525878907,
            "width": 208.00001525878907,
            "height": 437.0
        }
    },
    "m_Slots": [
        {
            "m_Id": "9c7262b152254596b25248bd18363688"
        },
        {
            "m_Id": "ed4a80ed38bd4039bc8f3e16d3729227"
        },
        {
            "m_Id": "5f428df18a3d4fcb85e6a81ab7b98459"
        },
        {
            "m_Id": "7eda97fcf1f84fb1a5a8301849991143"
        },
        {
            "m_Id": "360ba385d03247f38024236076be4dcb"
        },
        {
            "m_Id": "e25b4840881b409fbe8ac7bdcf043477"
        },
        {
            "m_Id": "994d5c2093b44c01b0642f5229466c72"
        },
        {
            "m_Id": "7ae1b5e0cf2c4f85a28f9ddb256e75eb"
        }
    ],
    "synonyms": [],
    "m_Precision": 0,
    "m_PreviewExpanded": true,
    "m_PreviewMode": 0,
    "m_CustomColors": {
        "m_SerializableColors": []
    },
    "m_TextureType": 0,
    "m_NormalMapSpace": 0
}

{
    "m_SGVersion": 0,
    "m_Type": "UnityEditor.ShaderGraph.Vector1MaterialSlot",
    "m_ObjectId": "bdec5fa295c24018a88208e4b03f115d",
    "m_Id": 4,
    "m_DisplayName": "R",
    "m_SlotType": 1,
    "m_Hidden": false,
    "m_ShaderOutputName": "R",
    "m_StageCapability": 2,
    "m_Value": 0.0,
    "m_DefaultValue": 0.0,
    "m_Labels": []
}

{
    "m_SGVersion": 0,
    "m_Type": "UnityEditor.ShaderGraph.ColorRGBMaterialSlot",
    "m_ObjectId": "bdfc023085044ee4af210477cbfb93fa",
    "m_Id": 0,
    "m_DisplayName": "Emission",
    "m_SlotType": 0,
    "m_Hidden": false,
    "m_ShaderOutputName": "Emission",
    "m_StageCapability": 2,
    "m_Value": {
        "x": 0.0,
        "y": 0.0,
        "z": 0.0
    },
    "m_DefaultValue": {
        "x": 0.0,
        "y": 0.0,
        "z": 0.0
    },
    "m_Labels": [],
    "m_ColorMode": 1,
    "m_DefaultColor": {
        "r": 0.0,
        "g": 0.0,
        "b": 0.0,
        "a": 1.0
    }
}

{
    "m_SGVersion": 0,
    "m_Type": "UnityEditor.ShaderGraph.SampleTexture2DNode",
    "m_ObjectId": "c0efdfe4b8024e429efc2be0e5e19369",
    "m_Group": {
        "m_Id": ""
    },
    "m_Name": "Sample Texture 2D",
    "m_DrawState": {
        "m_Expanded": true,
        "m_Position": {
            "serializedVersion": "2",
            "x": -448.0,
            "y": 388.0000305175781,
            "width": 208.0,
            "height": 437.0000305175781
        }
    },
    "m_Slots": [
        {
            "m_Id": "a5649544e7f54006804a51532ad701c2"
        },
        {
            "m_Id": "5f988b270bfd4e899c31f752551c1b15"
        },
        {
            "m_Id": "b7eb9ff8bf65411797d0d2d8f686915d"
        },
        {
            "m_Id": "17e1e53e765f480380b58d98420abeee"
        },
        {
            "m_Id": "098e0ba2d6f749a3adebf7061c2f3b56"
        },
        {
            "m_Id": "406cdaa130bc4218ac50816b75a67566"
        },
        {
            "m_Id": "d33e98e88138435db42dba3ef888f74b"
        },
        {
            "m_Id": "ddfa7eee3794485cbf3175f1be4d92e9"
        }
    ],
    "synonyms": [],
    "m_Precision": 0,
    "m_PreviewExpanded": true,
    "m_PreviewMode": 0,
    "m_CustomColors": {
        "m_SerializableColors": []
    },
    "m_TextureType": 0,
    "m_NormalMapSpace": 0
}

{
    "m_SGVersion": 0,
    "m_Type": "UnityEditor.ShaderGraph.BlockNode",
    "m_ObjectId": "c307a79725fe4245afa9f38aadf0c210",
    "m_Group": {
        "m_Id": ""
    },
    "m_Name": "SurfaceDescription.Smoothness",
    "m_DrawState": {
        "m_Expanded": true,
        "m_Position": {
            "serializedVersion": "2",
            "x": 0.0,
            "y": 0.0,
            "width": 0.0,
            "height": 0.0
        }
    },
    "m_Slots": [
        {
            "m_Id": "c9b5c476233a4424904a4930b18591d5"
        }
    ],
    "synonyms": [],
    "m_Precision": 0,
    "m_PreviewExpanded": true,
    "m_PreviewMode": 0,
    "m_CustomColors": {
        "m_SerializableColors": []
    },
    "m_SerializedDescriptor": "SurfaceDescription.Smoothness"
}

{
    "m_SGVersion": 0,
    "m_Type": "UnityEditor.ShaderGraph.Vector1MaterialSlot",
    "m_ObjectId": "c9b5c476233a4424904a4930b18591d5",
    "m_Id": 0,
    "m_DisplayName": "Smoothness",
    "m_SlotType": 0,
    "m_Hidden": false,
    "m_ShaderOutputName": "Smoothness",
    "m_StageCapability": 2,
    "m_Value": 0.5,
    "m_DefaultValue": 0.5,
    "m_Labels": []
}

{
    "m_SGVersion": 0,
    "m_Type": "UnityEditor.ShaderGraph.BlockNode",
    "m_ObjectId": "cb88336f34e24e2d9e8bc61fc508d641",
    "m_Group": {
        "m_Id": ""
    },
    "m_Name": "SurfaceDescription.BaseColor",
    "m_DrawState": {
        "m_Expanded": true,
        "m_Position": {
            "serializedVersion": "2",
            "x": 0.0,
            "y": 0.0,
            "width": 0.0,
            "height": 0.0
        }
    },
    "m_Slots": [
        {
            "m_Id": "12258db602214b92a2492b44cd4657ba"
        }
    ],
    "synonyms": [],
    "m_Precision": 0,
    "m_PreviewExpanded": true,
    "m_PreviewMode": 0,
    "m_CustomColors": {
        "m_SerializableColors": []
    },
    "m_SerializedDescriptor": "SurfaceDescription.BaseColor"
}

{
    "m_SGVersion": 0,
    "m_Type": "UnityEditor.ShaderGraph.UVMaterialSlot",
    "m_ObjectId": "d33e98e88138435db42dba3ef888f74b",
    "m_Id": 2,
    "m_DisplayName": "UV",
    "m_SlotType": 0,
    "m_Hidden": false,
    "m_ShaderOutputName": "UV",
    "m_StageCapability": 3,
    "m_Value": {
        "x": 0.0,
        "y": 0.0
    },
    "m_DefaultValue": {
        "x": 0.0,
        "y": 0.0
    },
    "m_Labels": [],
    "m_Channel": 0
}

{
    "m_SGVersion": 0,
    "m_Type": "UnityEditor.ShaderGraph.Vector1MaterialSlot",
    "m_ObjectId": "da778572608c4ad7914da4c93407b671",
    "m_Id": 0,
    "m_DisplayName": "Metallic",
    "m_SlotType": 0,
    "m_Hidden": false,
    "m_ShaderOutputName": "Metallic",
    "m_StageCapability": 2,
    "m_Value": 0.0,
    "m_DefaultValue": 0.0,
    "m_Labels": []
}

{
    "m_SGVersion": 0,
    "m_Type": "UnityEditor.ShaderGraph.SamplerStateMaterialSlot",
    "m_ObjectId": "ddfa7eee3794485cbf3175f1be4d92e9",
    "m_Id": 3,
    "m_DisplayName": "Sampler",
    "m_SlotType": 0,
    "m_Hidden": false,
    "m_ShaderOutputName": "Sampler",
    "m_StageCapability": 3,
    "m_BareResource": false
}

{
    "m_SGVersion": 0,
    "m_Type": "UnityEditor.ShaderGraph.Texture2DInputMaterialSlot",
    "m_ObjectId": "e25b4840881b409fbe8ac7bdcf043477",
    "m_Id": 1,
    "m_DisplayName": "Texture",
    "m_SlotType": 0,
    "m_Hidden": false,
    "m_ShaderOutputName": "Texture",
    "m_StageCapability": 3,
    "m_BareResource": false,
    "m_Texture": {
        "m_SerializedTexture": "{\"texture\":{\"fileID\":2800000,\"guid\":\"f1fc35ad48d2d1e4585b114add3b6ae9\",\"type\":3}}",
        "m_Guid": ""
    },
    "m_DefaultType": 0
}

{
    "m_SGVersion": 0,
    "m_Type": "UnityEditor.ShaderGraph.SamplerStateMaterialSlot",
    "m_ObjectId": "e63d02b1972d426da6fd39f53380c349",
    "m_Id": 3,
    "m_DisplayName": "Sampler",
    "m_SlotType": 0,
    "m_Hidden": false,
    "m_ShaderOutputName": "Sampler",
    "m_StageCapability": 3,
    "m_BareResource": false
}

{
    "m_SGVersion": 0,
    "m_Type": "UnityEditor.ShaderGraph.Vector1MaterialSlot",
    "m_ObjectId": "ed4a80ed38bd4039bc8f3e16d3729227",
    "m_Id": 4,
    "m_DisplayName": "R",
    "m_SlotType": 1,
    "m_Hidden": false,
    "m_ShaderOutputName": "R",
    "m_StageCapability": 2,
    "m_Value": 0.0,
    "m_DefaultValue": 0.0,
    "m_Labels": []
}

{
    "m_SGVersion": 0,
    "m_Type": "UnityEditor.ShaderGraph.Vector1MaterialSlot",
    "m_ObjectId": "f7992bf31b2b4ad984fea920f02ad58f",
    "m_Id": 6,
    "m_DisplayName": "B",
    "m_SlotType": 1,
    "m_Hidden": false,
    "m_ShaderOutputName": "B",
    "m_StageCapability": 2,
    "m_Value": 0.0,
    "m_DefaultValue": 0.0,
    "m_Labels": []
}

{
    "m_SGVersion": 0,
    "m_Type": "UnityEditor.ShaderGraph.Vector4MaterialSlot",
    "m_ObjectId": "fe612444f85f4d47b9a4ff31f05e9741",
    "m_Id": 0,
    "m_DisplayName": "RGBA",
    "m_SlotType": 1,
    "m_Hidden": false,
    "m_ShaderOutputName": "RGBA",
    "m_StageCapability": 2,
    "m_Value": {
        "x": 0.0,
        "y": 0.0,
        "z": 0.0,
        "w": 0.0
    },
    "m_DefaultValue": {
        "x": 0.0,
        "y": 0.0,
        "z": 0.0,
        "w": 0.0
    },
    "m_Labels": []
}

