%YAML 1.1
%TAG !u! tag:unity3d.com,2011:
--- !u!1001 &1246253793355275816
PrefabInstance:
  m_ObjectHideFlags: 0
  serializedVersion: 2
  m_Modification:
    m_TransformParent: {fileID: 7146139640290569037}
    m_Modifications:
    - target: {fileID: 100000, guid: abd37f546e0fac146a8fbdbf9324a0b2, type: 3}
      propertyPath: m_Name
      value: SM_Prop_Pipe_Part_Corner_01
      objectReference: {fileID: 0}
    - target: {fileID: 400000, guid: abd37f546e0fac146a8fbdbf9324a0b2, type: 3}
      propertyPath: m_LocalPosition.x
      value: 0
      objectReference: {fileID: 0}
    - target: {fileID: 400000, guid: abd37f546e0fac146a8fbdbf9324a0b2, type: 3}
      propertyPath: m_LocalPosition.y
      value: 0.1552
      objectReference: {fileID: 0}
    - target: {fileID: 400000, guid: abd37f546e0fac146a8fbdbf9324a0b2, type: 3}
      propertyPath: m_LocalPosition.z
      value: 0
      objectReference: {fileID: 0}
    - target: {fileID: 400000, guid: abd37f546e0fac146a8fbdbf9324a0b2, type: 3}
      propertyPath: m_LocalRotation.x
      value: 0.00000008146034
      objectReference: {fileID: 0}
    - target: {fileID: 400000, guid: abd37f546e0fac146a8fbdbf9324a0b2, type: 3}
      propertyPath: m_LocalRotation.y
      value: -0
      objectReference: {fileID: 0}
    - target: {fileID: 400000, guid: abd37f546e0fac146a8fbdbf9324a0b2, type: 3}
      propertyPath: m_LocalRotation.z
      value: -0
      objectReference: {fileID: 0}
    - target: {fileID: 400000, guid: abd37f546e0fac146a8fbdbf9324a0b2, type: 3}
      propertyPath: m_LocalRotation.w
      value: 1
      objectReference: {fileID: 0}
    - target: {fileID: 400000, guid: abd37f546e0fac146a8fbdbf9324a0b2, type: 3}
      propertyPath: m_RootOrder
      value: 3
      objectReference: {fileID: 0}
    - target: {fileID: 400000, guid: abd37f546e0fac146a8fbdbf9324a0b2, type: 3}
      propertyPath: m_LocalEulerAnglesHint.x
      value: 0
      objectReference: {fileID: 0}
    - target: {fileID: 400000, guid: abd37f546e0fac146a8fbdbf9324a0b2, type: 3}
      propertyPath: m_LocalEulerAnglesHint.y
      value: 0
      objectReference: {fileID: 0}
    - target: {fileID: 400000, guid: abd37f546e0fac146a8fbdbf9324a0b2, type: 3}
      propertyPath: m_LocalEulerAnglesHint.z
      value: 0
      objectReference: {fileID: 0}
    - target: {fileID: 400000, guid: abd37f546e0fac146a8fbdbf9324a0b2, type: 3}
      propertyPath: m_LocalScale.x
      value: 1
      objectReference: {fileID: 0}
    - target: {fileID: 400000, guid: abd37f546e0fac146a8fbdbf9324a0b2, type: 3}
      propertyPath: m_LocalScale.y
      value: 1
      objectReference: {fileID: 0}
    - target: {fileID: 400000, guid: abd37f546e0fac146a8fbdbf9324a0b2, type: 3}
      propertyPath: m_LocalScale.z
      value: 1
      objectReference: {fileID: 0}
    - target: {fileID: 2300000, guid: abd37f546e0fac146a8fbdbf9324a0b2, type: 3}
      propertyPath: m_Materials.Array.data[0]
      value: 
      objectReference: {fileID: 2100000, guid: f8ce3b3f786c145e397f3c275f706895, type: 2}
    m_RemovedComponents: []
  m_SourcePrefab: {fileID: 100100000, guid: abd37f546e0fac146a8fbdbf9324a0b2, type: 3}
--- !u!1001 &2229549569517374976
PrefabInstance:
  m_ObjectHideFlags: 0
  serializedVersion: 2
  m_Modification:
    m_TransformParent: {fileID: 0}
    m_Modifications:
    - target: {fileID: 9069338847078459568, guid: f85463bd9a2b1c9499f9f6f9373e7ac4,
        type: 3}
      propertyPath: m_LocalPosition.x
      value: -53.417
      objectReference: {fileID: 0}
    - target: {fileID: 9069338847078459568, guid: f85463bd9a2b1c9499f9f6f9373e7ac4,
        type: 3}
      propertyPath: m_LocalPosition.y
      value: 1.496
      objectReference: {fileID: 0}
    - target: {fileID: 9069338847078459568, guid: f85463bd9a2b1c9499f9f6f9373e7ac4,
        type: 3}
      propertyPath: m_LocalPosition.z
      value: -22.118
      objectReference: {fileID: 0}
    - target: {fileID: 9069338847078459568, guid: f85463bd9a2b1c9499f9f6f9373e7ac4,
        type: 3}
      propertyPath: m_LocalRotation.x
      value: -0
      objectReference: {fileID: 0}
    - target: {fileID: 9069338847078459568, guid: f85463bd9a2b1c9499f9f6f9373e7ac4,
        type: 3}
      propertyPath: m_LocalRotation.y
      value: -0
      objectReference: {fileID: 0}
    - target: {fileID: 9069338847078459568, guid: f85463bd9a2b1c9499f9f6f9373e7ac4,
        type: 3}
      propertyPath: m_LocalRotation.z
      value: -0
      objectReference: {fileID: 0}
    - target: {fileID: 9069338847078459568, guid: f85463bd9a2b1c9499f9f6f9373e7ac4,
        type: 3}
      propertyPath: m_LocalRotation.w
      value: 1
      objectReference: {fileID: 0}
    - target: {fileID: 9069338847078459568, guid: f85463bd9a2b1c9499f9f6f9373e7ac4,
        type: 3}
      propertyPath: m_RootOrder
      value: 0
      objectReference: {fileID: 0}
    - target: {fileID: 9069338847078459568, guid: f85463bd9a2b1c9499f9f6f9373e7ac4,
        type: 3}
      propertyPath: m_LocalEulerAnglesHint.x
      value: 0
      objectReference: {fileID: 0}
    - target: {fileID: 9069338847078459568, guid: f85463bd9a2b1c9499f9f6f9373e7ac4,
        type: 3}
      propertyPath: m_LocalEulerAnglesHint.y
      value: 0
      objectReference: {fileID: 0}
    - target: {fileID: 9069338847078459568, guid: f85463bd9a2b1c9499f9f6f9373e7ac4,
        type: 3}
      propertyPath: m_LocalEulerAnglesHint.z
      value: 0
      objectReference: {fileID: 0}
    - target: {fileID: 9069338847078459570, guid: f85463bd9a2b1c9499f9f6f9373e7ac4,
        type: 3}
      propertyPath: m_Name
      value: Object Placement - All Pipes Variant
      objectReference: {fileID: 0}
    m_RemovedComponents: []
  m_SourcePrefab: {fileID: 100100000, guid: f85463bd9a2b1c9499f9f6f9373e7ac4, type: 3}
--- !u!4 &7146139640290569037 stripped
Transform:
  m_CorrespondingSourceObject: {fileID: 9069338846997390669, guid: f85463bd9a2b1c9499f9f6f9373e7ac4,
    type: 3}
  m_PrefabInstance: {fileID: 2229549569517374976}
  m_PrefabAsset: {fileID: 0}
--- !u!1001 &3147259462827624111
PrefabInstance:
  m_ObjectHideFlags: 0
  serializedVersion: 2
  m_Modification:
    m_TransformParent: {fileID: 7146139640290569037}
    m_Modifications:
    - target: {fileID: 100000, guid: efde0704c0b00d74eaa18692b18b3253, type: 3}
      propertyPath: m_Name
      value: SM_Prop_Pipe_Part_Connect_01
      objectReference: {fileID: 0}
    - target: {fileID: 100000, guid: efde0704c0b00d74eaa18692b18b3253, type: 3}
      propertyPath: m_IsActive
      value: 1
      objectReference: {fileID: 0}
    - target: {fileID: 400000, guid: efde0704c0b00d74eaa18692b18b3253, type: 3}
      propertyPath: m_LocalPosition.x
      value: -0.09949875
      objectReference: {fileID: 0}
    - target: {fileID: 400000, guid: efde0704c0b00d74eaa18692b18b3253, type: 3}
      propertyPath: m_LocalPosition.y
      value: 0
      objectReference: {fileID: 0}
    - target: {fileID: 400000, guid: efde0704c0b00d74eaa18692b18b3253, type: 3}
      propertyPath: m_LocalPosition.z
      value: -0.15520096
      objectReference: {fileID: 0}
    - target: {fileID: 400000, guid: efde0704c0b00d74eaa18692b18b3253, type: 3}
      propertyPath: m_LocalRotation.x
      value: 0.00000008146034
      objectReference: {fileID: 0}
    - target: {fileID: 400000, guid: efde0704c0b00d74eaa18692b18b3253, type: 3}
      propertyPath: m_LocalRotation.y
      value: -0
      objectReference: {fileID: 0}
    - target: {fileID: 400000, guid: efde0704c0b00d74eaa18692b18b3253, type: 3}
      propertyPath: m_LocalRotation.z
      value: -0
      objectReference: {fileID: 0}
    - target: {fileID: 400000, guid: efde0704c0b00d74eaa18692b18b3253, type: 3}
      propertyPath: m_LocalRotation.w
      value: 1
      objectReference: {fileID: 0}
    - target: {fileID: 400000, guid: efde0704c0b00d74eaa18692b18b3253, type: 3}
      propertyPath: m_RootOrder
      value: 2
      objectReference: {fileID: 0}
    - target: {fileID: 400000, guid: efde0704c0b00d74eaa18692b18b3253, type: 3}
      propertyPath: m_LocalEulerAnglesHint.x
      value: 0
      objectReference: {fileID: 0}
    - target: {fileID: 400000, guid: efde0704c0b00d74eaa18692b18b3253, type: 3}
      propertyPath: m_LocalEulerAnglesHint.y
      value: 0
      objectReference: {fileID: 0}
    - target: {fileID: 400000, guid: efde0704c0b00d74eaa18692b18b3253, type: 3}
      propertyPath: m_LocalEulerAnglesHint.z
      value: 0
      objectReference: {fileID: 0}
    - target: {fileID: 400000, guid: efde0704c0b00d74eaa18692b18b3253, type: 3}
      propertyPath: m_LocalScale.x
      value: 1
      objectReference: {fileID: 0}
    - target: {fileID: 400000, guid: efde0704c0b00d74eaa18692b18b3253, type: 3}
      propertyPath: m_LocalScale.y
      value: 1
      objectReference: {fileID: 0}
    - target: {fileID: 400000, guid: efde0704c0b00d74eaa18692b18b3253, type: 3}
      propertyPath: m_LocalScale.z
      value: 1
      objectReference: {fileID: 0}
    - target: {fileID: 2300000, guid: efde0704c0b00d74eaa18692b18b3253, type: 3}
      propertyPath: m_Materials.Array.data[0]
      value: 
      objectReference: {fileID: 2100000, guid: f8ce3b3f786c145e397f3c275f706895, type: 2}
    m_RemovedComponents: []
  m_SourcePrefab: {fileID: 100100000, guid: efde0704c0b00d74eaa18692b18b3253, type: 3}
--- !u!1001 &7034697117283979300
PrefabInstance:
  m_ObjectHideFlags: 0
  serializedVersion: 2
  m_Modification:
    m_TransformParent: {fileID: 7146139640290569037}
    m_Modifications:
    - target: {fileID: 100000, guid: 1a0e9ff6b887f2a48a1b1ed08dd3ade1, type: 3}
      propertyPath: m_Name
      value: SM_Prop_Pipe_Part_Straight_01
      objectReference: {fileID: 0}
    - target: {fileID: 100000, guid: 1a0e9ff6b887f2a48a1b1ed08dd3ade1, type: 3}
      propertyPath: m_IsActive
      value: 1
      objectReference: {fileID: 0}
    - target: {fileID: 400000, guid: 1a0e9ff6b887f2a48a1b1ed08dd3ade1, type: 3}
      propertyPath: m_LocalPosition.x
      value: -0.5
      objectReference: {fileID: 0}
    - target: {fileID: 400000, guid: 1a0e9ff6b887f2a48a1b1ed08dd3ade1, type: 3}
      propertyPath: m_LocalPosition.y
      value: 0
      objectReference: {fileID: 0}
    - target: {fileID: 400000, guid: 1a0e9ff6b887f2a48a1b1ed08dd3ade1, type: 3}
      propertyPath: m_LocalPosition.z
      value: -0.15500069
      objectReference: {fileID: 0}
    - target: {fileID: 400000, guid: 1a0e9ff6b887f2a48a1b1ed08dd3ade1, type: 3}
      propertyPath: m_LocalRotation.x
      value: -0
      objectReference: {fileID: 0}
    - target: {fileID: 400000, guid: 1a0e9ff6b887f2a48a1b1ed08dd3ade1, type: 3}
      propertyPath: m_LocalRotation.y
      value: -0
      objectReference: {fileID: 0}
    - target: {fileID: 400000, guid: 1a0e9ff6b887f2a48a1b1ed08dd3ade1, type: 3}
      propertyPath: m_LocalRotation.z
      value: -0
      objectReference: {fileID: 0}
    - target: {fileID: 400000, guid: 1a0e9ff6b887f2a48a1b1ed08dd3ade1, type: 3}
      propertyPath: m_LocalRotation.w
      value: 1
      objectReference: {fileID: 0}
    - target: {fileID: 400000, guid: 1a0e9ff6b887f2a48a1b1ed08dd3ade1, type: 3}
      propertyPath: m_RootOrder
      value: 0
      objectReference: {fileID: 0}
    - target: {fileID: 400000, guid: 1a0e9ff6b887f2a48a1b1ed08dd3ade1, type: 3}
      propertyPath: m_LocalEulerAnglesHint.x
      value: 0
      objectReference: {fileID: 0}
    - target: {fileID: 400000, guid: 1a0e9ff6b887f2a48a1b1ed08dd3ade1, type: 3}
      propertyPath: m_LocalEulerAnglesHint.y
      value: 0
      objectReference: {fileID: 0}
    - target: {fileID: 400000, guid: 1a0e9ff6b887f2a48a1b1ed08dd3ade1, type: 3}
      propertyPath: m_LocalEulerAnglesHint.z
      value: 0
      objectReference: {fileID: 0}
    - target: {fileID: 400000, guid: 1a0e9ff6b887f2a48a1b1ed08dd3ade1, type: 3}
      propertyPath: m_LocalScale.x
      value: 1
      objectReference: {fileID: 0}
    - target: {fileID: 400000, guid: 1a0e9ff6b887f2a48a1b1ed08dd3ade1, type: 3}
      propertyPath: m_LocalScale.y
      value: 1
      objectReference: {fileID: 0}
    - target: {fileID: 400000, guid: 1a0e9ff6b887f2a48a1b1ed08dd3ade1, type: 3}
      propertyPath: m_LocalScale.z
      value: 1
      objectReference: {fileID: 0}
    - target: {fileID: 2300000, guid: 1a0e9ff6b887f2a48a1b1ed08dd3ade1, type: 3}
      propertyPath: m_Enabled
      value: 1
      objectReference: {fileID: 0}
    - target: {fileID: 2300000, guid: 1a0e9ff6b887f2a48a1b1ed08dd3ade1, type: 3}
      propertyPath: m_Materials.Array.data[0]
      value: 
      objectReference: {fileID: 2100000, guid: f8ce3b3f786c145e397f3c275f706895, type: 2}
    m_RemovedComponents: []
  m_SourcePrefab: {fileID: 100100000, guid: 1a0e9ff6b887f2a48a1b1ed08dd3ade1, type: 3}
--- !u!1001 &7913004870715618138
PrefabInstance:
  m_ObjectHideFlags: 0
  serializedVersion: 2
  m_Modification:
    m_TransformParent: {fileID: 7146139640290569037}
    m_Modifications:
    - target: {fileID: 100000, guid: c30c0841723e49f4ebbac95faf3037df, type: 3}
      propertyPath: m_Name
      value: SM_Prop_Pipe_Part_T_01
      objectReference: {fileID: 0}
    - target: {fileID: 100000, guid: c30c0841723e49f4ebbac95faf3037df, type: 3}
      propertyPath: m_IsActive
      value: 1
      objectReference: {fileID: 0}
    - target: {fileID: 400000, guid: c30c0841723e49f4ebbac95faf3037df, type: 3}
      propertyPath: m_LocalPosition.x
      value: 0.5495987
      objectReference: {fileID: 0}
    - target: {fileID: 400000, guid: c30c0841723e49f4ebbac95faf3037df, type: 3}
      propertyPath: m_LocalPosition.y
      value: 0
      objectReference: {fileID: 0}
    - target: {fileID: 400000, guid: c30c0841723e49f4ebbac95faf3037df, type: 3}
      propertyPath: m_LocalPosition.z
      value: -0.15550041
      objectReference: {fileID: 0}
    - target: {fileID: 400000, guid: c30c0841723e49f4ebbac95faf3037df, type: 3}
      propertyPath: m_LocalRotation.x
      value: -0
      objectReference: {fileID: 0}
    - target: {fileID: 400000, guid: c30c0841723e49f4ebbac95faf3037df, type: 3}
      propertyPath: m_LocalRotation.y
      value: -0
      objectReference: {fileID: 0}
    - target: {fileID: 400000, guid: c30c0841723e49f4ebbac95faf3037df, type: 3}
      propertyPath: m_LocalRotation.z
      value: -0
      objectReference: {fileID: 0}
    - target: {fileID: 400000, guid: c30c0841723e49f4ebbac95faf3037df, type: 3}
      propertyPath: m_LocalRotation.w
      value: 1
      objectReference: {fileID: 0}
    - target: {fileID: 400000, guid: c30c0841723e49f4ebbac95faf3037df, type: 3}
      propertyPath: m_RootOrder
      value: 1
      objectReference: {fileID: 0}
    - target: {fileID: 400000, guid: c30c0841723e49f4ebbac95faf3037df, type: 3}
      propertyPath: m_LocalEulerAnglesHint.x
      value: 0
      objectReference: {fileID: 0}
    - target: {fileID: 400000, guid: c30c0841723e49f4ebbac95faf3037df, type: 3}
      propertyPath: m_LocalEulerAnglesHint.y
      value: 0
      objectReference: {fileID: 0}
    - target: {fileID: 400000, guid: c30c0841723e49f4ebbac95faf3037df, type: 3}
      propertyPath: m_LocalEulerAnglesHint.z
      value: 0
      objectReference: {fileID: 0}
    - target: {fileID: 400000, guid: c30c0841723e49f4ebbac95faf3037df, type: 3}
      propertyPath: m_LocalScale.x
      value: 1
      objectReference: {fileID: 0}
    - target: {fileID: 400000, guid: c30c0841723e49f4ebbac95faf3037df, type: 3}
      propertyPath: m_LocalScale.y
      value: 1
      objectReference: {fileID: 0}
    - target: {fileID: 400000, guid: c30c0841723e49f4ebbac95faf3037df, type: 3}
      propertyPath: m_LocalScale.z
      value: 1
      objectReference: {fileID: 0}
    - target: {fileID: 2300000, guid: c30c0841723e49f4ebbac95faf3037df, type: 3}
      propertyPath: m_Materials.Array.data[0]
      value: 
      objectReference: {fileID: 2100000, guid: f8ce3b3f786c145e397f3c275f706895, type: 2}
    m_RemovedComponents: []
  m_SourcePrefab: {fileID: 100100000, guid: c30c0841723e49f4ebbac95faf3037df, type: 3}
