%YAML 1.1
%TAG !u! tag:unity3d.com,2011:
--- !u!114 &11400000
MonoBehaviour:
  m_ObjectHideFlags: 0
  m_CorrespondingSourceObject: {fileID: 0}
  m_PrefabInstance: {fileID: 0}
  m_PrefabAsset: {fileID: 0}
  m_GameObject: {fileID: 0}
  m_Enabled: 1
  m_EditorHideFlags: 0
  m_Script: {fileID: 11500000, guid: dc38003c0e0db6641a4762d4f392de52, type: 3}
  m_Name: New Prefab Palette
  m_EditorClassIdentifier: 
  prefabs:
  - gameObject: {fileID: 6150399144878216527, guid: 0149348eeea9d394f90a9b0caa2c803d,
      type: 3}
    settings:
      m_Strength: 86.31953
      m_RotationRangeMin: {x: 0, y: 0, z: 0}
      m_RotationRangeMax: {x: 360, y: 360, z: 360}
      m_ScaleRangeMin: {x: 0.5, y: 0.5, z: 0.5}
      m_ScaleRangeMax: {x: 1, y: 1, z: 1}
      m_UniformScale: {x: 1, y: 1}
      m_UniformBool: 0
      m_XRotationBool: 0
      m_YRotationBool: 1
      m_ZRotationBool: 0
      m_XScaleBool: 1
      m_YScaleBool: 1
      m_ZScaleBool: 1
    name: tree_var6
  - gameObject: {fileID: 3203267614033666860, guid: f2f1029221489804299256d00268c910,
      type: 3}
    settings:
      m_Strength: 88.66272
      m_RotationRangeMin: {x: 0, y: 0, z: 0}
      m_RotationRangeMax: {x: 360, y: 360, z: 360}
      m_ScaleRangeMin: {x: 0.6, y: 0.6, z: 0.6}
      m_ScaleRangeMax: {x: 1.2, y: 1, z: 1.2}
      m_UniformScale: {x: 1, y: 1}
      m_UniformBool: 0
      m_XRotationBool: 0
      m_YRotationBool: 1
      m_ZRotationBool: 0
      m_XScaleBool: 1
      m_YScaleBool: 1
      m_ZScaleBool: 1
    name: tree_var5 1
  - gameObject: {fileID: 6256861204751164074, guid: da44a2c8b4021a843b973f206fadc6d8,
      type: 3}
    settings:
      m_Strength: 17.109467
      m_RotationRangeMin: {x: 0, y: 0, z: 0}
      m_RotationRangeMax: {x: 360, y: 360, z: 360}
      m_ScaleRangeMin: {x: 0.8, y: 0.8, z: 0.8}
      m_ScaleRangeMax: {x: 1.5, y: 1.25, z: 1.5}
      m_UniformScale: {x: 1, y: 1}
      m_UniformBool: 0
      m_XRotationBool: 0
      m_YRotationBool: 1
      m_ZRotationBool: 0
      m_XScaleBool: 1
      m_YScaleBool: 1
      m_ZScaleBool: 1
    name: tree_var4
  - gameObject: {fileID: 5579881475899424905, guid: dd0167de7cfbc4f4f8f3405fbb0afc8d,
      type: 3}
    settings:
      m_Strength: 24.139051
      m_RotationRangeMin: {x: 0, y: 0, z: 0}
      m_RotationRangeMax: {x: 0, y: 360, z: 0}
      m_ScaleRangeMin: {x: 0.8, y: 0.8, z: 0.8}
      m_ScaleRangeMax: {x: 1.15, y: 1.2, z: 1.15}
      m_UniformScale: {x: 1, y: 1}
      m_UniformBool: 0
      m_XRotationBool: 0
      m_YRotationBool: 1
      m_ZRotationBool: 0
      m_XScaleBool: 1
      m_YScaleBool: 1
      m_ZScaleBool: 1
    name: tree_var3
  - gameObject: {fileID: 3757392626648189171, guid: 8d8ef3e5143a7b142884b16dfe8317c1,
      type: 3}
    settings:
      m_Strength: 51.0858
      m_RotationRangeMin: {x: 1, y: 1, z: 1}
      m_RotationRangeMax: {x: 360, y: 360, z: 360}
      m_ScaleRangeMin: {x: 0.8, y: 0.8, z: 0.8}
      m_ScaleRangeMax: {x: 1.5, y: 1.2, z: 1.5}
      m_UniformScale: {x: 1, y: 1}
      m_UniformBool: 0
      m_XRotationBool: 0
      m_YRotationBool: 1
      m_ZRotationBool: 0
      m_XScaleBool: 1
      m_YScaleBool: 1
      m_ZScaleBool: 1
    name: tree_var2
  - gameObject: {fileID: 1445679340349194631, guid: c3ef3b65b2a9bbf418692f4c230b43e8,
      type: 3}
    settings:
      m_Strength: 25.31065
      m_RotationRangeMin: {x: 0, y: 0, z: 0}
      m_RotationRangeMax: {x: 360, y: 360, z: 360}
      m_ScaleRangeMin: {x: 0.8, y: 0.8, z: 0.8}
      m_ScaleRangeMax: {x: 1.15, y: 1.1, z: 1.15}
      m_UniformScale: {x: 1, y: 1}
      m_UniformBool: 0
      m_XRotationBool: 0
      m_YRotationBool: 1
      m_ZRotationBool: 0
      m_XScaleBool: 1
      m_YScaleBool: 1
      m_ZScaleBool: 1
    name: tree_var1
