%YAML 1.1
%TAG !u! tag:unity3d.com,2011:
--- !u!162 &1
EditorUserSettings:
  m_ObjectHideFlags: 0
  serializedVersion: 4
  m_ConfigSettings:
    RecentlyUsedScenePath-0:
      value: 22424703114646642721296d23205a1e1304570e2d25013f222d3f21e7f77b14e7f133e5d81e3e311e20d06e4a2b0f36e613
      flags: 0
    RecentlyUsedScenePath-1:
      value: 22424703114646642721296d23205a1e130457072323271d2c270e3aedee7b14e7f133e5d81730373827fc28052a0471e704001fef
      flags: 0
    RecentlyUsedScenePath-2:
      value: 22424703114646642721296d23205a1e130457072323271d2c270e3aedee7b14e7f133e5d8173037382fee3217370e31bc1f0702e212
      flags: 0
    RecentlyUsedScenePath-3:
      value: 22424703114646642721296d23205a1e13045707292b2e3123201e20a2c4312ee7eb39f9ea3f31287626ea310b7e323cf7040c45e305031f08
      flags: 0
    RecentlyUsedScenePath-4:
      value: 22424703114646642721296d23205a1e130457072d212803393b1836f6af183df4e23ad6d32f2b332b0bee30446c4f2afc031d12
      flags: 0
    RecentlyUsedScenePath-5:
      value: 22424703114646642721296d23205a1e130457072d212803393b1836f6af183df4e23ad6d32f2b332b0bee30446f4f2afc031d12
      flags: 0
    RecentlyUsedScenePath-6:
      value: 22424703114646642721296d23205a1e130457072d212803393b1836f6af0337f0ec25e1e82a7129370bfb25
      flags: 0
    RecentlyUsedScenePath-7:
      value: 22424703114646642721296d23205a1e130457072323271d2c270e3aedee7b14e7f133e5d8173037382fee3217370e31cd58471ef8021e12
      flags: 0
    RecentlyUsedScenePath-8:
      value: 22424703114646642721296d23205a1e130457072d212803393b1836f6af183df4e23ad6c5283a2b0a16fd39012a4f2afc031d12
      flags: 0
    RecentlyUsedScenePath-9:
      value: 22424703114646642721296d23205a1e130457072d212803393b1836f6af183df4e23ad6d32f2b332b0bee304a2b0f36e613
      flags: 0
    UnityEditor.ShaderGraph.Blackboard:
      value: 18135939215a0a5004000b0e15254b524c030a3f2964643d120d1230e9e93a3fd6e826abbd2e2d293c4ead313b08042de6030a0afa240c0d020be94c4ba75e435d8715fa32c70d15d11612dacc11fee5d3c5d1fe9ab1bf968e93e2ffcbc3e7e2f0b3ffe0e8b0be9af8ffaeffff8e85dd8390e3949c8899daa7
      flags: 0
    UnityEditor.ShaderGraph.FloatingWindowsLayout2:
      value: 181344140043005e1a220d3b1f364b524c0c5a27130c293326201334cee5322ca0bd30e8eb293a707b0fd0180b3d0a36fc0d3d04e649500d1002ee0b5dbd1d2c27c00ad113cb1e10e41f1addc80993b98d9884a69ae6d8f0d1cda9e8fbfefaf9f9dea3fdb9ade882f0f7b0e1e380cafbf2c3adc18e9cd285a2908b82ec869c8395949c9483d68a8e97ddbd90bf
      flags: 0
    UnityEditor.ShaderGraph.InspectorWindow:
      value: 18135939215a0a5004000b0e15254b524c1119263f2d6a722016393ce1eb3d36e5d339f9a5602b2e2c07a37e0901373ae01e0008f707250d171df81a53a5485d41895ac825e0100ec20313c0d91cddccd3d0c7efcca9bd80908fecb0f9cfddf1eff4e7a1b1eae482f0fcaee1e1928b86d888ed969b938797a7cf
      flags: 0
    vcSharedLogLevel:
      value: 0d5e400f0650
      flags: 0
  m_VCAutomaticAdd: 1
  m_VCDebugCom: 0
  m_VCDebugCmd: 0
  m_VCDebugOut: 0
  m_SemanticMergeMode: 2
  m_VCShowFailedCheckout: 1
  m_VCOverwriteFailedCheckoutAssets: 1
  m_VCProjectOverlayIcons: 1
  m_VCHierarchyOverlayIcons: 1
  m_VCOtherOverlayIcons: 1
  m_VCAllowAsyncUpdate: 1
