%YAML 1.1
%TAG !u! tag:unity3d.com,2011:
--- !u!114 &11400000
MonoBehaviour:
  m_ObjectHideFlags: 0
  m_CorrespondingSourceObject: {fileID: 0}
  m_PrefabInstance: {fileID: 0}
  m_PrefabAsset: {fileID: 0}
  m_GameObject: {fileID: 0}
  m_Enabled: 1
  m_EditorHideFlags: 0
  m_Script: {fileID: 11500000, guid: a1c49a92ef1771844b9c93a4037158cd, type: 3}
  m_Name: asdLiquidOverride
  m_EditorClassIdentifier: 
  overrideList:
  - name: _Color
    displayName: _Color
    shaderName: Assets/_JOE/Shaders/CrossSection.shadergraph
    materialName: Shader Graphs_CrossSection
    type: 0
    value: {x: 0.4811321, y: 0.3025907, z: 0.15205586, w: 1}
    instanceOverride: 0
  - name: _CutoffColor
    displayName: _CutoffColor
    shaderName: Assets/_JOE/Shaders/CrossSection.shadergraph
    materialName: Shader Graphs_CrossSection
    type: 0
    value: {x: 0.44339603, y: 0.25502595, z: 0.10666587, w: 0}
    instanceOverride: 0
  - name: _MyAnimationTime
    displayName: _MyAnimationTime
    shaderName: Assets/_JOE/Shaders/CrossSection.shadergraph
    materialName: Shader Graphs_CrossSection
    type: 2
    value: {x: 0, y: 0, z: 0, w: 0}
    instanceOverride: 0
  - name: _Plane
    displayName: _Plane
    shaderName: Assets/_JOE/Shaders/CrossSection.shadergraph
    materialName: Shader Graphs_CrossSection
    type: 1
    value: {x: 0, y: 0.97861475, z: -0.20570154, w: -7.4028482}
    instanceOverride: 0
  - name: _Fill
    displayName: _Fill
    shaderName: Assets/_JOE/Shaders/CrossSection.shadergraph
    materialName: Shader Graphs_CrossSection
    type: 2
    value: {x: 0.06, y: 0, z: 0, w: 0}
    instanceOverride: 0
  - name: _WobbleX
    displayName: _WobbleX
    shaderName: Assets/_JOE/Shaders/CrossSection.shadergraph
    materialName: Shader Graphs_CrossSection
    type: 2
    value: {x: 0, y: 0, z: 0, w: 0}
    instanceOverride: 0
  - name: _WobbleZ
    displayName: _WobbleZ
    shaderName: Assets/_JOE/Shaders/CrossSection.shadergraph
    materialName: Shader Graphs_CrossSection
    type: 2
    value: {x: 0, y: 0, z: 0, w: 0}
    instanceOverride: 0
  material: {fileID: 2100000, guid: 18ab39b63828f194796767d026e84882, type: 2}
